{
    "model_id": 726809125,
    "model_name": "Mathe-Maister",
    "deck_id": 778678099,
    "deck_description": "Analysis 1 bei Prof Reinhard Oldenburg, SoSe 19, Uni Augsburg.\nFertigstellung voraussichtlich August 2019.\n\nalex.m.s@gmx.de für Fragen und Änderungsvorschläge.\noder gitlab.com/CptMaister",
    "deck_name": " Mathe-Maister::Analysis I",
    "start_note_id": 18883544,
    "start_card_id": 66586747,
    "guid_random_string": "dNmp4" 
}
